{
  "status_code": 200,
  "success": true,
  "message": "Transaction List.",
  "data": {
    "current_page": 1,
    "data": [
      {
        "id": 8387,
        "transaction_type": 3,
        "transaction_class": "Standard",
        "deal_transaction_type": null,
        "status": 1,
        "updated_at": "2024-03-13 07:17:54",
        "created_at": "2023-09-06 08:00:03",
        "created_by": 635,
        "ticket_no": "108354",
        "agent_id": 635,
        "is_converted_to_deal": 0,
        "reviewed_by": 685,
        "review_assigned_to": 1,
        "is_final_trade_initiated": 1,
        "conf_of_closing_received_date": null,
        "deal_finalized_date": "2023-09-06 08:14:51",
        "helping_staff": null,
        "people_deal_processing_transaction_id": 8387,
        "deal_processing_transaction_people_id": 13495,
        "client_deal_processing_transaction_id": 8387,
        "first_name": "asd",
        "last_name": "ad",
        "office_name": null,
        "listing_property_deal_processing_transaction_id": 8387,
        "property_price": "43123.0000",
        "street_address": null,
        "apt_suit_unit_no": "321311",
        "city": "Toronto",
        "province": null,
        "country": null,
        "postal_code": null,
        "expiry_date": null,
        "offer_date": "2023-09-07",
        "closing_date": null,
        "occupancy_date": "2023-09-30",
        "project_name": "121243",
        "is_listing_sale_or_lease": null,
        "commencement_date": null,
        "client_name": "asd ad",
        "sort_created_date": "2023-09-06 08:01:30",
        "sort_updated_date": "2024-03-13 07:17:54",
        "saved": 0,
        "submit_count": 4,
        "submit_to_draft_count": 0,
        "is_referrer_listing": false,
        "reviewed_by_user": "Dhikesh torinit",
        "is_deal_status_updated_after_validated_pending_additional_docs": false,
        "total_commission_amount": "2459.4900",
        "total_deposit_amount": 0,
        "is_deal_admin": false,
        "is_mandatory_docs_are_validated": true,
        "transaction_agent_detail": {
          "agent_id": 635,
          "agent_name": "Julianna McMillen",
          "email": "nikhil+agent3@torinit.com",
          "phone_number": "965-326-7777",
          "branch_id": 6
        },
        "new_created_at": "2023-09-06 08:01:30",
        "new_updated_at": "2024-03-13 07:17:54",
        "ready_for_payroll_date": "2023-09-14T12:59:15.000000Z",
        "payroll_finalized_tradesheet_presign_url": null,
        "transaction_class_detail": null,
        "transaction_people_agents": [],
        "transaction_status_detail": {
          "status_id": 1,
          "status_name": "Submitted"
        },
        "transaction_type_detail": {
          "status_id": 3,
          "status_name": "Builder Deal"
        },
        "transaction_people_client": [
          {
            "id": 13507,
            "deal_processing_transaction_id": 8387,
            "deal_processing_transaction_people_id": 13495,
            "contact_type": 1,
            "first_name": "asd",
            "last_name": "ad",
            "primary_phone_number": null,
            "secondary_phone_number": null,
            "personal_email": "kumarnavin@test.com",
            "work_email": null,
            "office_name": null,
            "nature_of_principal_business": null,
            "registration_no_of_corporation": null,
            "source_of_verification_record": null,
            "copy_of_corporate_record": null,
            "street_address": null,
            "apt_suit_unit_no": null,
            "city": null,
            "province": null,
            "country": null,
            "postal_code": null,
            "latitude": null,
            "longitude": null,
            "created_at": "2023-09-06T12:00:52.000000Z",
            "laravel_through_key": 8387,
            "copy_of_corporate_record_presign_url": null
          },
          {
            "id": 13508,
            "deal_processing_transaction_id": 8387,
            "deal_processing_transaction_people_id": 13496,
            "contact_type": 2,
            "first_name": null,
            "last_name": null,
            "primary_phone_number": null,
            "secondary_phone_number": null,
            "personal_email": null,
            "work_email": null,
            "office_name": null,
            "nature_of_principal_business": null,
            "registration_no_of_corporation": null,
            "source_of_verification_record": null,
            "copy_of_corporate_record": null,
            "street_address": null,
            "apt_suit_unit_no": null,
            "city": null,
            "province": null,
            "country": null,
            "postal_code": null,
            "latitude": "0",
            "longitude": "0",
            "created_at": "2023-09-06T12:00:52.000000Z",
            "laravel_through_key": 8387,
            "copy_of_corporate_record_presign_url": null
          },
          {
            "id": 13509,
            "deal_processing_transaction_id": 8387,
            "deal_processing_transaction_people_id": 13497,
            "contact_type": 2,
            "first_name": null,
            "last_name": null,
            "primary_phone_number": null,
            "secondary_phone_number": null,
            "personal_email": null,
            "work_email": null,
            "office_name": null,
            "nature_of_principal_business": null,
            "registration_no_of_corporation": null,
            "source_of_verification_record": null,
            "copy_of_corporate_record": null,
            "street_address": null,
            "apt_suit_unit_no": null,
            "city": null,
            "province": null,
            "country": null,
            "postal_code": null,
            "latitude": "0",
            "longitude": "0",
            "created_at": "2023-09-06T12:00:52.000000Z",
            "laravel_through_key": 8387,
            "copy_of_corporate_record_presign_url": null
          }
        ],
        "active_final_trade": {
          "id": 998,
          "deal_processing_transaction_id": 8387,
          "status": 1,
          "review_status": 4,
          "template_file_presign_url": null
        },
        "agent": {
          "id": 635,
          "user_profile_detail_id": 128,
          "profile_detail": {
            "id": 128,
            "first_name": "Julianna",
            "last_name": "McMillen",
            "driver_license_presign_url": null,
            "profile_photo_presign_url": null
          }
        },
        "status_logs": [
          {
            "id": 22183,
            "deal_processing_transaction_id": 8387,
            "status_from": 99,
            "status_to": 98,
            "changed_by": 1,
            "created_at": "2023-09-14 08:59:15"
          },
          {
            "id": 21395,
            "deal_processing_transaction_id": 8387,
            "status_from": 99,
            "status_to": 98,
            "changed_by": 1,
            "created_at": "2023-09-06 08:14:08"
          },
          {
            "id": 21390,
            "deal_processing_transaction_id": 8387,
            "status_from": 97,
            "status_to": 98,
            "changed_by": 1,
            "created_at": "2023-09-06 08:11:19"
          }
        ]
      },
      {
        "id": 6851,
        "transaction_type": 3,
        "transaction_class": "Standard",
        "deal_transaction_type": null,
        "status": 17,
        "updated_at": "2024-03-01 08:34:10",
        "created_at": "2023-06-26 10:21:06",
        "created_by": 635,
        "ticket_no": "106845",
        "agent_id": 635,
        "is_converted_to_deal": 0,
        "reviewed_by": 685,
        "review_assigned_to": 1,
        "is_final_trade_initiated": null,
        "conf_of_closing_received_date": null,
        "deal_finalized_date": null,
        "helping_staff": 1,
        "people_deal_processing_transaction_id": 6851,
        "deal_processing_transaction_people_id": 10597,
        "client_deal_processing_transaction_id": 6851,
        "first_name": "Navin",
        "last_name": "Test1",
        "office_name": null,
        "listing_property_deal_processing_transaction_id": 6851,
        "property_price": "4433.0000",
        "street_address": null,
        "apt_suit_unit_no": "32",
        "city": "Chilliwack",
        "province": null,
        "country": null,
        "postal_code": null,
        "expiry_date": null,
        "offer_date": "2023-06-26",
        "closing_date": null,
        "occupancy_date": "2023-07-31",
        "project_name": "New Project",
        "is_listing_sale_or_lease": null,
        "commencement_date": null,
        "client_name": "Navin Test1",
        "sort_created_date": "2023-06-26 10:22:43",
        "sort_updated_date": "2024-03-01 08:34:10",
        "saved": 0,
        "submit_count": 1,
        "submit_to_draft_count": 0,
        "is_referrer_listing": false,
        "reviewed_by_user": "Dhikesh torinit",
        "is_deal_status_updated_after_validated_pending_additional_docs": false,
        "total_commission_amount": "1264.1700",
        "total_deposit_amount": 0,
        "is_deal_admin": false,
        "is_mandatory_docs_are_validated": false,
        "transaction_agent_detail": {
          "agent_id": 635,
          "agent_name": "Julianna McMillen",
          "email": "nikhil+agent3@torinit.com",
          "phone_number": "965-326-7777",
          "branch_id": 6
        },
        "new_created_at": "2023-06-26 10:22:43",
        "new_updated_at": "2024-03-01 08:34:10",
        "ready_for_payroll_date": null,
        "payroll_finalized_tradesheet_presign_url": null,
        "transaction_class_detail": null,
        "transaction_people_agents": [],
        "transaction_status_detail": {
          "status_id": 17,
          "status_name": "Amendment Needs Update"
        },
        "transaction_type_detail": {
          "status_id": 3,
          "status_name": "Builder Deal"
        },
        "transaction_people_client": [
          {
            "id": 10610,
            "deal_processing_transaction_id": 6851,
            "deal_processing_transaction_people_id": 10597,
            "contact_type": 1,
            "first_name": "Navin",
            "last_name": "Test1",
            "primary_phone_number": "778-686-8596",
            "secondary_phone_number": null,
            "personal_email": null,
            "work_email": null,
            "office_name": null,
            "nature_of_principal_business": null,
            "registration_no_of_corporation": null,
            "source_of_verification_record": null,
            "copy_of_corporate_record": null,
            "street_address": null,
            "apt_suit_unit_no": null,
            "city": null,
            "province": null,
            "country": null,
            "postal_code": null,
            "latitude": null,
            "longitude": null,
            "created_at": "2023-06-26T14:21:44.000000Z",
            "laravel_through_key": 6851,
            "copy_of_corporate_record_presign_url": null
          },
          {
            "id": 10611,
            "deal_processing_transaction_id": 6851,
            "deal_processing_transaction_people_id": 10598,
            "contact_type": 2,
            "first_name": null,
            "last_name": null,
            "primary_phone_number": null,
            "secondary_phone_number": null,
            "personal_email": null,
            "work_email": null,
            "office_name": null,
            "nature_of_principal_business": null,
            "registration_no_of_corporation": null,
            "source_of_verification_record": null,
            "copy_of_corporate_record": null,
            "street_address": null,
            "apt_suit_unit_no": null,
            "city": null,
            "province": null,
            "country": null,
            "postal_code": null,
            "latitude": "0",
            "longitude": "0",
            "created_at": "2023-06-26T14:21:45.000000Z",
            "laravel_through_key": 6851,
            "copy_of_corporate_record_presign_url": null
          },
          {
            "id": 10612,
            "deal_processing_transaction_id": 6851,
            "deal_processing_transaction_people_id": 10599,
            "contact_type": 2,
            "first_name": null,
            "last_name": null,
            "primary_phone_number": null,
            "secondary_phone_number": null,
            "personal_email": null,
            "work_email": null,
            "office_name": null,
            "nature_of_principal_business": null,
            "registration_no_of_corporation": null,
            "source_of_verification_record": null,
            "copy_of_corporate_record": null,
            "street_address": null,
            "apt_suit_unit_no": null,
            "city": null,
            "province": null,
            "country": null,
            "postal_code": null,
            "latitude": "0",
            "longitude": "0",
            "created_at": "2023-06-26T14:21:45.000000Z",
            "laravel_through_key": 6851,
            "copy_of_corporate_record_presign_url": null
          }
        ],
        "active_final_trade": null,
        "agent": {
          "id": 635,
          "user_profile_detail_id": 128,
          "profile_detail": {
            "id": 128,
            "first_name": "Julianna",
            "last_name": "McMillen",
            "driver_license_presign_url": null,
            "profile_photo_presign_url": null
          }
        },
        "status_logs": []
      }
    ],
    "first_page_url": "https:\/\/b2yy7yyk5d.execute-api.ca-central-1.amazonaws.com\/api\/v1\/transactions?page=1",
    "from": 1,
    "last_page": 35,
    "last_page_url": "https:\/\/b2yy7yyk5d.execute-api.ca-central-1.amazonaws.com\/api\/v1\/transactions?page=35",
    "links": [
      {
        "url": null,
        "label": "&laquo; Previous",
        "active": false
      },
      {
        "url": "https:\/\/b2yy7yyk5d.execute-api.ca-central-1.amazonaws.com\/api\/v1\/transactions?page=1",
        "label": "1",
        "active": true
      },
      {
        "url": "https:\/\/b2yy7yyk5d.execute-api.ca-central-1.amazonaws.com\/api\/v1\/transactions?page=2",
        "label": "2",
        "active": false
      },
      {
        "url": "https:\/\/b2yy7yyk5d.execute-api.ca-central-1.amazonaws.com\/api\/v1\/transactions?page=3",
        "label": "3",
        "active": false
      },
      {
        "url": "https:\/\/b2yy7yyk5d.execute-api.ca-central-1.amazonaws.com\/api\/v1\/transactions?page=4",
        "label": "4",
        "active": false
      },
      {
        "url": "https:\/\/b2yy7yyk5d.execute-api.ca-central-1.amazonaws.com\/api\/v1\/transactions?page=5",
        "label": "5",
        "active": false
      },
      {
        "url": "https:\/\/b2yy7yyk5d.execute-api.ca-central-1.amazonaws.com\/api\/v1\/transactions?page=6",
        "label": "6",
        "active": false
      },
      {
        "url": "https:\/\/b2yy7yyk5d.execute-api.ca-central-1.amazonaws.com\/api\/v1\/transactions?page=7",
        "label": "7",
        "active": false
      },
      {
        "url": "https:\/\/b2yy7yyk5d.execute-api.ca-central-1.amazonaws.com\/api\/v1\/transactions?page=8",
        "label": "8",
        "active": false
      },
      {
        "url": "https:\/\/b2yy7yyk5d.execute-api.ca-central-1.amazonaws.com\/api\/v1\/transactions?page=9",
        "label": "9",
        "active": false
      },
      {
        "url": "https:\/\/b2yy7yyk5d.execute-api.ca-central-1.amazonaws.com\/api\/v1\/transactions?page=10",
        "label": "10",
        "active": false
      },
      {
        "url": null,
        "label": "...",
        "active": false
      },
      {
        "url": "https:\/\/b2yy7yyk5d.execute-api.ca-central-1.amazonaws.com\/api\/v1\/transactions?page=34",
        "label": "34",
        "active": false
      },
      {
        "url": "https:\/\/b2yy7yyk5d.execute-api.ca-central-1.amazonaws.com\/api\/v1\/transactions?page=35",
        "label": "35",
        "active": false
      },
      {
        "url": "https:\/\/b2yy7yyk5d.execute-api.ca-central-1.amazonaws.com\/api\/v1\/transactions?page=2",
        "label": "Next &raquo;",
        "active": false
      }
    ],
    "next_page_url": "https:\/\/b2yy7yyk5d.execute-api.ca-central-1.amazonaws.com\/api\/v1\/transactions?page=2",
    "path": "https:\/\/b2yy7yyk5d.execute-api.ca-central-1.amazonaws.com\/api\/v1\/transactions",
    "per_page": 20,
    "prev_page_url": null,
    "to": 20,
    "total": 694
  }
}